…
  my_biopsy <- biopsy %>%
    filter(complete.cases(.)) %>%
    mutate(observation = paste0('obs_', 1:nrow(.)),
           ID = paste(observation, ID, sep = '_')) %>%
    as_tibble

```

```r

> my_biopsy
# A tibble: 683 × 12
   ID                V1    V2    V3    V4    V5    V6    V7    V8    V9 class     observation
   <chr>          <int> <int> <int> <int> <int> <int> <int> <int> <int> <fct>     <chr>      
 1 obs_1_1000025      5     1     1     1     2     1     3     1     1 benign    obs_1      
 2 obs_2_1002945      5     4     4     5     7    10     3     2     1 benign    obs_2      
 3 obs_3_1015425      3     1     1     1     2     2     3     1     1 benign    obs_3      
 4 obs_4_1016277      6     8     8     1     3     4     3     7     1 benign    obs_4      
 5 obs_5_1017023      4     1     1     3     2     1     3     1     1 benign    obs_5      
 6 obs_6_1017122      8    10    10     8     7    10     9     7     1 malignant obs_6      
 7 obs_7_1018099      1     1     1     1     2    10     3     1     1 benign    obs_7      
 8 obs_8_1018561      2     1     2     1     2     1     3     1     1 benign    obs_8      
 9 obs_9_1033078      2     1     1     1     2     1     1     1     5 benign    obs_9      
10 obs_10_1033078     4     2     1     1     2     1     2     1     1 benign    obs_10     
# … with 673 more rows
# ℹ Use `print(n = ...)` to see more rows
…
  clust_objects$pam_cosine <-
    kcluster(data = biopsy_lst$train,
             distance_method = 'cosine',
             k = 2,
             clust_fun = 'pam')

```

```r

> clust_objects$pam_cosine
Clustering analysis with PAM and cosine distance method.
Cluster assignment:
# A tibble: 383 × 2
   observation     clust_id
   <chr>           <fct>   
 1 obs_284_601265  1       
 2 obs_101_1167471 1       
 3 obs_623_1277792 1       
 4 obs_645_1339781 2       
 5 obs_400_1238948 2       
 6 obs_98_1166630  2       
 7 obs_103_1168736 2       
 8 obs_602_1042252 1       
 9 obs_326_806423  2       
10 obs_79_1137156  1       
# … with 373 more rows
# ℹ Use `print(n = ...)` to see more rows
…
> as.matrix(dist(clust_objects$pam_cosine))[1:5, 1:5]
                obs_284_601265 obs_101_1167471 obs_623_1277792 obs_645_1339781 obs_400_1238948
obs_284_601265      0.00000000      0.21342699      0.15789388       0.2976895      0.08462418
obs_101_1167471     0.21342699      0.00000000      0.06341419       0.1204068      0.15371658
obs_623_1277792     0.15789388      0.06341419      0.00000000       0.2049536      0.19244959
obs_645_1339781     0.29768946      0.12040679      0.20495361       0.0000000      0.18009751
obs_400_1238948     0.08462418      0.15371658      0.19244959       0.1800975      0.00000000

> extract(clust_objects$pam_cosine, type = 'assignment')
# A tibble: 383 × 2
   observation     clust_id
   <chr>           <fct>   
 1 obs_284_601265  1       
 2 obs_101_1167471 1       
 3 obs_623_1277792 1       
 4 obs_645_1339781 2       
 5 obs_400_1238948 2       
 6 obs_98_1166630  2       
 7 obs_103_1168736 2       
 8 obs_602_1042252 1       
 9 obs_326_806423  2       
10 obs_79_1137156  1       
# … with 373 more rows
# ℹ Use `print(n = ...)` to see more rows
…
